%YAML 1.1
%TAG !u! tag:unity3d.com,2011:
--- !u!114 &11400000
MonoBehaviour:
  m_ObjectHideFlags: 0
  m_CorrespondingSourceObject: {fileID: 0}
  m_PrefabInstance: {fileID: 0}
  m_PrefabAsset: {fileID: 0}
  m_GameObject: {fileID: 0}
  m_Enabled: 1
  m_EditorHideFlags: 0
  m_Script: {fileID: 0}
  m_Name: Ref Cop
  m_EditorClassIdentifier: Assembly-CSharp::ScripltableRecipe
  input:
  - Copper
  output:
  - {fileID: 6680847359289098659, guid: f77d5c7a2b7b88845957a409063ce20f, type: 3}
